RNA-seq Analysis: The Facile Way • FacileAnalysis
…
The ranks(fpca()) produces a table of features that are highly loaded along the PCs we calculated. signature(fpca()) produces a summary of ranks, which provides the ntop features positively and negatively loaded on each PC.

signature(pca, ntop = 10) %>% 
  tidy() %>% 
  select(name, symbol, feature_id, score)

#> # A tibble: 100 x 4
#>    name    symbol   feature_id       score
#>    <chr>   <chr>    <chr>            <dbl>
#>  1 PC1 pos VCAM1    ENSG00000162692 0.0939
#>  2 PC1 pos LRRTM2   ENSG00000146006 0.0839
#>  3 PC1 pos SLITRK6  ENSG00000184564 0.0758
#>  4 PC1 pos TNFAIP6  ENSG00000123610 0.0733
#>  5 PC1 pos PIEZO2   ENSG00000154864 0.0700
#>  6 PC1 pos IGDCC4   ENSG00000103742 0.0682
#>  7 PC1 pos PGBD5    ENSG00000177614 0.0676
#>  8 PC1 pos ADAMTS14 ENSG00000138316 0.0673
#>  9 PC1 pos FER1L6   ENSG00000214814 0.0665
#> 10 PC1 pos LIF      ENSG00000128342 0.0663
#> # … with 90 more rows
…
