Facile Principal Components Analysis • FacileAnalysis
…
Exploring Feature Loadings on Principal Components

The principal components are a new basis of orthogonal axes that are linear combinations of the original axes, which in this examples are genes. By exploring which genes (and gene sets) are most highly loaded along each principal component, analysts can begin to better understand what biological processes might be driving the variability in their data.

The ranks(fpca()) result extracts the feature (gene) loadings onto the principal components. signature(fpca()) extracts the top N ntop features from each principal component.

The code below returns the top 10 features over the first three PCs. The score column corresponds to the loading:

pca.sig <- signature(pca.crc, dims = 1:3, ntop = 10)
pca.sig %>% 
  tidy() %>% 
  select(feature_id, symbol, dimension, score)

#> # A tibble: 60 × 4
#>    feature_id symbol  dimension  score
#>    <chr>      <chr>   <chr>      <dbl>
#>  1 340146     SLC35D3 PC1       0.0760
#>  2 58529      MYOZ1   PC1       0.0729
#>  3 7123       CLEC3B  PC1       0.0714
#>  4 259282     BOD1L   PC1       0.0684
#>  5 29988      SLC2A8  PC1       0.0683
#>  6 124912     SPACA3  PC1       0.0683
#>  7 4931       NVL     PC1       0.0680
#>  8 10564      ARFGEF2 PC1       0.0665
#>  9 3158       HMGCS2  PC1       0.0659
#> 10 2745       GLRX    PC1       0.0650
#> # … with 50 more rows
…
