RNA-seq Analysis: The Facile Way • FacileAnalysis
…
The ranks(fpca()) function produces a table of features that are highly loaded along the PCs calculated. signature(fpca()) produces a summary of the ranks, by taking the ntop features positively and negatively loaded on each PC.

signature(pca, ntop = 10) %>%
  tidy() %>%
  select(name, symbol, feature_id, score)

#> # A tibble: 100 x 4
#>    name    symbol   feature_id       score
#>    <chr>   <chr>    <chr>            <dbl>
#>  1 PC1 pos VCAM1    ENSG00000162692 0.0801
#>  2 PC1 pos LRRTM2   ENSG00000146006 0.0729
#>  3 PC1 pos SLITRK6  ENSG00000184564 0.0625
#>  4 PC1 pos ADCY1    ENSG00000164742 0.0618
#>  5 PC1 pos TNFAIP6  ENSG00000123610 0.0614
#>  6 PC1 pos FER1L6   ENSG00000214814 0.0589
#>  7 PC1 pos PIEZO2   ENSG00000154864 0.0586
#>  8 PC1 pos PGBD5    ENSG00000177614 0.0572
#>  9 PC1 pos ADAMTS14 ENSG00000138316 0.0569
#> 10 PC1 pos LRRC15   ENSG00000172061 0.0568
#> # … with 90 more rows
…
